Dissertation_analysis_template
…
dat

## # A tibble: 12,680 x 13
##    session_id project_id quest_id user_id user_sex user_status user_age q_name
##         <dbl>      <dbl>    <dbl>   <dbl> <chr>    <chr>          <dbl> <chr> 
##  1      35095        336     1899       1 female   admin           43.4 psqi_~
##  2      35095        336     1899       1 female   admin           43.4 psqi_~
##  3      35095        336     1899       1 female   admin           43.4 psqi_~
##  4      35095        336     1899       1 female   admin           43.4 psqi_~
##  5      35096        336     1899       1 female   admin           43.4 psqi_~
##  6      35096        336     1899       1 female   admin           43.4 psqi_~
##  7      35096        336     1899       1 female   admin           43.4 psqi_~
##  8      35096        336     1899       1 female   admin           43.4 psqi_~
##  9      35135        336     1899       3 female   super           43.4 psqi_~
## 10      35135        336     1899       3 female   super           43.4 psqi_~
## # ... with 12,670 more rows, and 5 more variables: q_id <dbl>, order <dbl>,
## #   dv <chr>, starttime <dttm>, endtime <dttm>
…
summary(dat$endtime)

##                  Min.               1st Qu.                Median 
## "2020-04-22 10:39:03" "2020-05-02 13:51:18" "2020-05-03 07:58:44" 
##                  Mean               3rd Qu.                  Max. 
## "2020-05-04 21:58:30" "2020-05-04 21:54:02" "2020-05-30 20:11:29"

dat <- dat %>% mutate(row = row_number())
dat

## # A tibble: 12,680 x 14
##    session_id project_id quest_id user_id user_sex user_status user_age q_name
##         <dbl>      <dbl>    <dbl>   <dbl> <chr>    <chr>          <dbl> <chr> 
##  1      35095        336     1899       1 female   admin           43.4 psqi_~
##  2      35095        336     1899       1 female   admin           43.4 psqi_~
##  3      35095        336     1899       1 female   admin           43.4 psqi_~
##  4      35095        336     1899       1 female   admin           43.4 psqi_~
##  5      35096        336     1899       1 female   admin           43.4 psqi_~
##  6      35096        336     1899       1 female   admin           43.4 psqi_~
##  7      35096        336     1899       1 female   admin           43.4 psqi_~
##  8      35096        336     1899       1 female   admin           43.4 psqi_~
##  9      35135        336     1899       3 female   super           43.4 psqi_~
## 10      35135        336     1899       3 female   super           43.4 psqi_~
## # ... with 12,670 more rows, and 6 more variables: q_id <dbl>, order <dbl>,
## #   dv <chr>, starttime <dttm>, endtime <dttm>, row <int>

2. Cleaning up the data

## # A tibble: 231 x 65
##    user_id user_sex user_age consent_answer DASS1_s DASS10_d DASS11_s DASS12_s
##      <dbl> <chr>       <dbl> <chr>            <int>    <int>    <int>    <int>
##  1   21248 female       23.2 1                    4        4        4        4
##  2   24796 female       42.8 1                    2        2        6        6
##  3   31889 female       22.8 1                    4        4        4        4
##  4   32291 <NA>         63   1                    2        0        2        2
##  5   32292 <NA>         29   1                    2        6        4        2
##  6   32293 <NA>         NA   1                    0        0        0        0
##  7   32294 female       24   1                    4       NA        4        4
##  8   32295 male         20   1                    2        2        0        2
##  9   32296 female       36   1                    0        2        2        2
## 10   32297 <NA>         24   1                    2        4        6        2
## # ... with 221 more rows, and 57 more variables: DASS13_d <int>,
## #   DASS14_s <int>, DASS15_a <int>, DASS16_d <int>, DASS17_d <int>,
## #   DASS18_s <int>, DASS19_a <int>, DASS2_a <int>, DASS20_a <int>,
## #   DASS21_d <int>, DASS3_d <int>, DASS4_a <int>, DASS5_d <int>, DASS6_s <int>,
## #   DASS7_a <int>, DASS8_s <int>, DASS9_a <int>, part_age <chr>,
## #   part_country <chr>, part_education <chr>, part_gender <chr>,
## #   part_home_time <chr>, part_marital_status <chr>, part_virus <chr>,
## #   psci_bonding_1 <int>, psci_bonding_2 <int>, psci_bonding_3 <int>,
## #   psci_bonding_4 <int>, psci_bonding_5 <int>, psci_bonding_6 <int>,
## #   psci_bonding_7 <int>, psci_bonding_8 <int>, psci_capital_10 <int>,
## #   psci_capital_11 <int>, psci_capital_12 <int>, psci_capital_13 <int>,
## #   psci_capital_14 <int>, psci_capital_15 <int>, psci_capital_16 <int>,
## #   psci_capital_9 <int>, psqi_5a <int>, psqi_5b <int>, psqi_5c <int>,
## #   psqi_5d <int>, psqi_5e <int>, psqi_5f <int>, psqi_5g <int>, psqi_5h <int>,
## #   psqi_5i <int>, psqi_5j <int>, psqi_6 <int>, psqi_7 <int>, psqi_8 <int>,
## #   psqi_hours_slept <chr>, psqi_hoursinbed1 <chr>, psqi_hoursinbed2 <chr>,
## #   psqi_sleep_latency1 <chr>

##checking demographics

## # A tibble: 231 x 66
##    user_id user_sex user_age consent_answer DASS1_s DASS10_d DASS11_s DASS12_s
##      <dbl> <chr>       <dbl> <chr>            <int>    <int>    <int>    <int>
##  1   21248 female       23.2 1                    4        4        4        4
##  2   24796 female       42.8 1                    2        2        6        6
##  3   31889 female       22.8 1                    4        4        4        4
##  4   32291 <NA>         63   1                    2        0        2        2
##  5   32292 <NA>         29   1                    2        6        4        2
##  6   32293 <NA>         NA   1                    0        0        0        0
##  7   32294 female       24   1                    4       NA        4        4
##  8   32295 male         20   1                    2        2        0        2
##  9   32296 female       36   1                    0        2        2        2
## 10   32297 <NA>         24   1                    2        4        6        2
## # ... with 221 more rows, and 58 more variables: DASS13_d <int>,
## #   DASS14_s <int>, DASS15_a <int>, DASS16_d <int>, DASS17_d <int>,
## #   DASS18_s <int>, DASS19_a <int>, DASS2_a <int>, DASS20_a <int>,
## #   DASS21_d <int>, DASS3_d <int>, DASS4_a <int>, DASS5_d <int>, DASS6_s <int>,
## #   DASS7_a <int>, DASS8_s <int>, DASS9_a <int>, part_age <chr>,
## #   part_country <chr>, part_education <chr>, part_gender <chr>,
## #   part_home_time <chr>, part_marital_status <chr>, part_virus <chr>,
## #   psci_bonding_1 <int>, psci_bonding_2 <int>, psci_bonding_3 <int>,
## #   psci_bonding_4 <int>, psci_bonding_5 <int>, psci_bonding_6 <int>,
…
4. cleaning data for participants

check guides for scoring method

#DASS: determine the scores for stress, depression, and anxiety multiplied by two #PSCI: summation of scores out of 80

#NB Scores on the DASS-21 will need to be multiplied by 2 to calculate the final score. Depression: normal = 0-9 mild = 10-13 moderate = 14-20 severe = 21-27 extremely severe = 28+ Anxiety: normal = 0-7 mild = 8-9 moderate = 10-14 severe = 15-19 extremely severe = 20+ Stress: normal = 0-14 mild = 15-18 moderate = 19-25 severe = 26-33 extremely severe = 34+

DASS: variable names include suffix representing stress (e.g., DASS1_s), anxiety (e.g., DASS15_a), and depression (e.g., DASS10_d)

## # A tibble: 231 x 66
##    user_id user_sex user_age consent_answer DASS1_s DASS10_d DASS11_s DASS12_s
##      <dbl> <chr>       <dbl> <chr>            <int>    <int>    <int>    <int>
##  1   21248 female       23.2 1                    4        4        4        4
##  2   24796 female       42.8 1                    2        2        6        6
##  3   31889 female       22.8 1                    4        4        4        4
##  4   32291 <NA>         63   1                    2        0        2        2
##  5   32292 <NA>         29   1                    2        6        4        2
##  6   32293 <NA>         NA   1                    0        0        0        0
##  7   32294 female       24   1                    4       NA        4        4
##  8   32295 male         20   1                    2        2        0        2
##  9   32296 female       36   1                    0        2        2        2
## 10   32297 <NA>         24   1                    2        4        6        2
## # ... with 221 more rows, and 58 more variables: DASS13_d <int>,
## #   DASS14_s <int>, DASS15_a <int>, DASS16_d <int>, DASS17_d <int>,
## #   DASS18_s <int>, DASS19_a <int>, DASS2_a <int>, DASS20_a <int>,
## #   DASS21_d <int>, DASS3_d <int>, DASS4_a <int>, DASS5_d <int>, DASS6_s <int>,
## #   DASS7_a <int>, DASS8_s <int>, DASS9_a <int>, part_age <chr>,
## #   part_country <chr>, part_education <chr>, part_gender <chr>,
## #   part_home_time <chr>, part_marital_status <chr>, part_virus <chr>,
## #   psci_bonding_1 <int>, psci_bonding_2 <int>, psci_bonding_3 <int>,
## #   psci_bonding_4 <int>, psci_bonding_5 <int>, psci_bonding_6 <int>,
## #   psci_bonding_7 <int>, psci_bonding_8 <int>, psci_capital_10 <int>,
## #   psci_capital_11 <int>, psci_capital_12 <int>, psci_capital_13 <int>,
## #   psci_capital_14 <int>, psci_capital_15 <int>, psci_capital_16 <int>,
## #   psci_capital_9 <int>, psqi_5a <int>, psqi_5b <int>, psqi_5c <int>,
## #   psqi_5d <int>, psqi_5e <int>, psqi_5f <int>, psqi_5g <int>, psqi_5h <int>,
## #   psqi_5i <int>, psqi_5j <int>, psqi_6 <int>, psqi_7 <int>, psqi_8 <int>,
## #   psqi_hours_slept <chr>, psqi_hoursinbed1 <chr>, psqi_hoursinbed2 <chr>,
## #   psqi_sleep_latency1 <chr>, rownumber <int>

## `summarise()` regrouping output by 'user_id', 'user_sex', 'user_age', 'consent_answer', 'DASS1_s', 'DASS10_d', 'DASS11_s', 'DASS12_s', 'DASS13_d', 'DASS14_s', 'DASS15_a', 'DASS16_d', 'DASS17_d', 'DASS18_s', 'DASS19_a', 'DASS2_a', 'DASS20_a', 'DASS21_d', 'DASS3_d', 'DASS4_a', 'DASS5_d', 'DASS6_s', 'DASS7_a', 'DASS8_s', 'DASS9_a', 'part_age', 'part_country', 'part_education', 'part_gender', 'part_home_time', 'part_marital_status', 'part_virus', 'psqi_5a', 'psqi_5b', 'psqi_5c', 'psqi_5d', 'psqi_5e', 'psqi_5f', 'psqi_5g', 'psqi_5h', 'psqi_5i', 'psqi_5j', 'psqi_6', 'psqi_7', 'psqi_8', 'psqi_hours_slept', 'psqi_hoursinbed1', 'psqi_hoursinbed2', 'psqi_sleep_latency1' (override with `.groups` argument)

## # A tibble: 231 x 51
##    user_id user_sex user_age consent_answer DASS1_s DASS10_d DASS11_s DASS12_s
##      <dbl> <chr>       <dbl> <chr>            <int>    <int>    <int>    <int>
##  1   21248 female       23.2 1                    4        4        4        4
##  2   24796 female       42.8 1                    2        2        6        6
##  3   31889 female       22.8 1                    4        4        4        4
##  4   32291 <NA>         63   1                    2        0        2        2
##  5   32292 <NA>         29   1                    2        6        4        2
##  6   32293 <NA>         NA   1                    0        0        0        0
##  7   32294 female       24   1                    4       NA        4        4
##  8   32295 male         20   1                    2        2        0        2
##  9   32296 female       36   1                    0        2        2        2
## 10   32297 <NA>         24   1                    2        4        6        2
## # ... with 221 more rows, and 43 more variables: DASS13_d <int>,
## #   DASS14_s <int>, DASS15_a <int>, DASS16_d <int>, DASS17_d <int>,
## #   DASS18_s <int>, DASS19_a <int>, DASS2_a <int>, DASS20_a <int>,
## #   DASS21_d <int>, DASS3_d <int>, DASS4_a <int>, DASS5_d <int>, DASS6_s <int>,
## #   DASS7_a <int>, DASS8_s <int>, DASS9_a <int>, part_age <chr>,
## #   part_country <chr>, part_education <chr>, part_gender <chr>,
## #   part_home_time <chr>, part_marital_status <chr>, part_virus <chr>,
## #   psqi_5a <int>, psqi_5b <int>, psqi_5c <int>, psqi_5d <int>, psqi_5e <int>,
## #   psqi_5f <int>, psqi_5g <int>, psqi_5h <int>, psqi_5i <int>, psqi_5j <int>,
…
## `summarise()` ungrouping output (override with `.groups` argument)

## # A tibble: 4 x 2
##   part_country  mean
##   <chr>        <dbl>
## 1 1             28.7
## 2 2             22.3
## 3 3             34.2
## 4 <NA>          40

####4.1 refining PSQI score

## # A tibble: 231 x 33
##    user_id user_sex user_age consent_answer part_age part_country part_education
##      <dbl> <chr>       <dbl> <chr>          <chr>    <chr>        <chr>         
##  1   21248 female       23.2 1              23       1            4             
##  2   24796 female       42.8 1              42       1            5             
##  3   31889 female       22.8 1              22       1            4             
##  4   32291 <NA>         63   1              63       2            4             
##  5   32292 <NA>         29   1              29       2            4             
##  6   32293 <NA>         NA   1              21       2            3             
##  7   32294 female       24   1              24       1            4             
##  8   32295 male         20   1              20       2            3             
##  9   32296 female       36   1              36       2            4             
## 10   32297 <NA>         24   1              24       2            2             
## # ... with 221 more rows, and 26 more variables: part_gender <chr>,
## #   part_home_time <chr>, part_marital_status <chr>, part_virus <chr>,
## #   psqi_5a <int>, psqi_5b <int>, psqi_5c <int>, psqi_5d <int>, psqi_5e <int>,
## #   psqi_5f <int>, psqi_5g <int>, psqi_5h <int>, psqi_5i <int>, psqi_5j <int>,
## #   psqi_6 <int>, psqi_7 <int>, psqi_8 <int>, psqi_hours_slept <chr>,
## #   psqi_hoursinbed1 <chr>, psqi_hoursinbed2 <chr>, psqi_sleep_latency1 <chr>,
## #   rownumber <int>, PSCI_score <int>, stress_score <dbl>, anxiety_score <dbl>,
## #   depression_score <dbl>

## # A tibble: 231 x 18
##    user_id psqi_5a psqi_5b psqi_5c psqi_5d psqi_5e psqi_5f psqi_5g psqi_5h
##      <dbl>   <int>   <int>   <int>   <int>   <int>   <int>   <int>   <int>
##  1   21248       3       1       0       0       0       0       1       1
##  2   24796       3       3       3       0       0       1       1       0
##  3   31889       2       3       3       2       0       1       1       2
##  4   32291       1       2       2       0       0       0       0       0
##  5   32292       0       1       1       2       3       0       3       1
##  6   32293       2       0       1       0       0       0       3       0
##  7   32294       3       2       0       0       0       0       0       1
##  8   32295       3       2       1       2       0       2       2       0
##  9   32296       3       0       0       0       0       0       0       0
## 10   32297       1       1       0       0       0       0       0       2
## # ... with 221 more rows, and 9 more variables: psqi_5i <int>, psqi_5j <int>,
## #   psqi_6 <int>, psqi_7 <int>, psqi_8 <int>, psqi_hours_slept <chr>,
## #   psqi_hoursinbed1 <chr>, psqi_hoursinbed2 <chr>, psqi_sleep_latency1 <chr>

## Warning in .parse_hms(..., order = "HM", quiet = quiet): Some strings failed to
## parse, or all strings are NAs

## Warning in .parse_hms(..., order = "HM", quiet = quiet): Some strings failed to
## parse, or all strings are NAs

####4.2 calculating PSQI score

see pitsburgh assessment for scoring the PSQI

## # A tibble: 231 x 10
##    user_id psqi_hours_slept comp2 comp3 hours_in_bed_abs sleep_eff comp4 comp5
##      <dbl>            <dbl> <dbl> <dbl>            <dbl>     <dbl> <dbl> <dbl>
##  1   21248              8       3     0             9.5       84.2     1     1
##  2   24796              9       3     0            13.3       67.5     2     2
##  3   31889             NA      NA    NA            NA         NA      NA     2
##  4   32291              7       1     0             8         87.5     0     1
##  5   32292              6       0     1             5.5      109.      0     2
##  6   32293              9       2     0             8        112.      0     1
##  7   32294             10       3     0            10        100       0     1
##  8   32295              6.5     3     1             7.5       86.7     0     1
##  9   32296              7       3     0             8.25      84.8     1     0
## 10   32297              4       1     3             5         80       1     1
## # ... with 221 more rows, and 2 more variables: comp6 <int>, comp7 <dbl>

## # A tibble: 64 x 10
##    user_id psqi_hours_slept comp2 comp3 hours_in_bed_abs sleep_eff comp4 comp5
##      <dbl>            <dbl> <dbl> <dbl>            <dbl>     <dbl> <dbl> <dbl>
##  1   31889               NA    NA    NA             NA        NA      NA     2
##  2   32310               NA    NA    NA             NA        NA      NA    NA
##  3   32314               NA    NA    NA             NA        NA      NA    NA
##  4   32318               NA    NA    NA             NA        NA      NA    NA
##  5   32319               NA    NA    NA             NA        NA      NA    NA
##  6   32322               NA    NA    NA             NA        NA      NA    NA
##  7   32325               NA    NA    NA             NA        NA      NA    NA
##  8   32331               NA    NA    NA             NA        NA      NA    NA
##  9   32334                7     0     0              7.5      93.3     0    NA
## 10   32339                5     3     2              6        83.3     1    NA
## # ... with 54 more rows, and 2 more variables: comp6 <int>, comp7 <dbl>

##4.3 descriptives for PSQI

## # A tibble: 1 x 4
##    mean   s.d   max   min
##   <dbl> <dbl> <dbl> <dbl>
## 1  5.77  2.98    15     1

##4.4 Joining back to data

## Joining, by = "user_id"

## # A tibble: 231 x 15
##    user_id user_age consent_answer part_country part_education part_gender
##      <dbl>    <dbl>          <dbl> <chr>        <chr>          <chr>      
##  1   21248     23.2              1 1            4              2          
##  2   24796     42.8              1 1            5              2          
##  3   31889     22.8              1 1            4              2          
##  4   32291     63                1 2            4              2          
##  5   32292     29                1 2            4              1          
##  6   32293     NA                1 2            3              1          
##  7   32294     24                1 1            4              2          
##  8   32295     20                1 2            3              1          
##  9   32296     36                1 2            4              2          
## 10   32297     24                1 2            2              1          
## # ... with 221 more rows, and 9 more variables: part_home_time <chr>,
## #   part_marital_status <chr>, part_virus <chr>, rownumber <int>,
## #   PSCI_score <int>, stress_score <dbl>, anxiety_score <dbl>,
## #   depression_score <dbl>, psqi_score <dbl>
…
